{
    "cafe": [
        {
            "X": [
                -192,
                -177,
                -207,
                -224
            ],
            "Y": [
                -474,
                -466,
                -400,
                -406
            ]
        }
    ],
    "McDrive": {
        "Zone": {
            "X": [
                -35,
                -18,
                -18,
                -35
            ],
            "Y": [
                -375,
                -375,
                -420,
                -420
            ]
        },
        "Choose": {
            "X": [
                -35,
                -25,
                -25,
                -35
            ],
            "Y": [
                -384,
                -384,
                -392,
                -392
            ]
        },
        "Pay": {
            "X": [
                -35,
                -25,
                -25,
                -35
            ],
            "Y": [
                -392,
                -392,
                -400,
                -400
            ]
        },
        "Take": {
            "X": [
                -35,
                -25,
                -25,
                -35
            ],
            "Y": [
                -400,
                -400,
                -408,
                -408
            ]
        }
    }
}