{
	"dealer": {
		"Pavel Skoredov":  {
			"name": "Pavel Skoredov",
			"workNow": 0,
			"x": -731,
			"y": -307,
			"z": 27,
			"heading": 80,
			"distance": 3,
			"product": "dose",
			"price": 10000,
			"workhours":[0,12,22,21,23]
		},
		"Klichko":  {
			"name": "Klichko",
			"workNow": 0,
			"x": -490,
			"y": -155,
			"z": 20,
			"heading": 94,
			"distance": 3,
			"product": "Phenylacetone", 
			"price": 2000,
			"workhours":[0,12,22,23]
		},
		"Poroshenko":  {
			"name": "Poroshenko",
			"workNow": 0,
			"x": 138,
			"y": -521,
			"z": 20,
			"heading": 27,
			"distance": 3,
			"product": "FormicAcid",
			"price": 2000,
			"workhours":[18,19,20,21]
		}
    }
}