892928, 63930368, 86, 84, 24
-1122304, 49807360, 83, 84, 24
-2269184, 28913664, 44, 84, 24
585728, 22437888, 31, 214, 24
10178560, 11354112, 44, 109, 24
11796480, 10739712, 44, 251, 69
18554880, -970752, 29, 209, 69
18780160, -2768896, 29, 209, 69
16642048, -2707456, 29, 84, 57
23318528, -17092608, 31, 212, 69
28475392, -25640960, 39, 212, 69
29138944, -27709440, 40, 107, 69
47894528, -55525376, 47, 219, 69
43364352, -71913472, 41, 246, 63
10330112, -72003584, 53, 120, 63
7729152, -71499776, 59, 124, 63
-1495040, -70115328, 75, 124, 63
-9224192, -69799936, 97, 124, 63
-15925248, -69775360, 104, 124, 63
-46845952, -40800256, 163, 85, 58
-54427648, -3506176, 113, 121, 17
-54616064, -3502080, 113, 121, 17
-54906880, -3493888, 114, 121, 17
-55250944, -3465216, 115, 121, 17
-55889920, -4378624, 118, 44, 47
-46465024, -17137664, 109, 154, 46
-46227456, -16846848, 109, 154, 46
-45940736, -16502784, 109, 154, 46
-49086464, 8785920, 92, 55, 30
-46555136, 19562496, 78, 55, 30
-45191168, 28012544, 81, 55, 30
-43233280, 37089280, 78, 55, 30
-33939456, 59400192, 62, 0, 14
-32673792, 59305984, 62, 0, 14
-30633984, 59035648, 62, 0, 14
-26963968, 61878272, 62, 73, 14
-27234304, 59822080, 62, 73, 14
-27410432, 58523648, 62, 73, 14
-19210240, 62771200, 66, 206, 13
-19136512, 61460480, 66, 206, 13
-19038208, 59404288, 66, 206, 13
-22192128, 58630144, 67, 142, 13
-24526848, 58716160, 62, 89, 27
-19955712, 64335872, 73, 16, 27
-16711680, 65150976, 77, 16, 27
-13058048, 66084864, 84, 16, 27
-9932800, 66875392, 86, 16, 27
-7061504, 67604480, 89, 16, 27
-2834432, 68677632, 93, 16, 27
-27312128, 49635328, 53, 16, 28
-27205632, 48668672, 53, 133, 28
-23306240, 48906240, 42, 160, 4
-22220800, 49487872, 37, 160, 4
-20639744, 50143232, 30, 160, 4
-20566016, 35672064, 59, 76, 17
-20553728, 34103296, 59, 76, 17
-20557824, 32546816, 59, 76, 17
-20541440, 30945280, 59, 76, 17
-20541440, 29364224, 59, 76, 17
-20549632, 26238976, 59, 76, 17
-20557824, 23089152, 59, 76, 17
-20533248, 19972096, 59, 76, 17
-19922944, 35434496, 59, 212, 17
-19935232, 32415744, 59, 212, 17
-19947520, 28041216, 59, 212, 17
-19963904, 21884928, 59, 212, 17
-19779584, 18997248, 59, 212, 17
-19480576, 17149952, 59, 212, 17
-20082688, 12083200, 59, 96, 17
-20090880, 10113024, 59, 96, 17
-31084544, -5984256, 71, 96, 41
-35618816, -8605696, 80, 136, 40
-35946496, -8609792, 80, 136, 40
-36405248, -8609792, 80, 136, 40
-35753984, -7319552, 80, 136, 40
-36175872, -7290880, 80, 136, 40
-35979264, -7864320, 80, 5, 40
-38907904, -7954432, 80, 132, 40
-40226816, -10878976, 80, 132, 40
-33099776, -7950336, 80, 132, 40
-49053696, -4272128, 99, 132, 17
-8073216, 46149632, 24, 106, 3
-8048640, 43311104, 16, 106, 3
-8036352, 41271296, 16, 106, 3
-7430144, 15712256, 20, 194, 3
-8056832, 11374592, 25, 96, 3
-8044544, 5419008, 26, 96, 3
-8069120, -528384, 46, 96, 3
-7692288, -12046336, 68, 130, 3
-3903488, -16031744, 68, 200, 1
-9555968, -20054016, 77, 200, 52
-10821632, -21762048, 82, 166, 49
-12664832, -21442560, 86, 166, 49
-16322560, -20832256, 87, 166, 49
-18829312, -20426752, 87, 166, 49
-16224256, -27111424, 82, 166, 61
-16375808, -27582464, 82, 166, 61
-15867904, -25759744, 82, 225, 62
438272, -33210368, 89, 109, 62
1200128, -31502336, 89, 20, 65
6479872, -27803648, 82, 20, 65
16510976, -26464256, 43, 20, 65
17354752, -27582464, 40, 134, 65
9228288, -33796096, 81, 94, 64
33931264, -63262720, 44, 56, 67
34074624, -62672896, 44, 56, 67
36761600, -48926720, 38, 84, 67
33603584, -43757568, 32, 84, 67
2199552, 6819840, 24, 161, 39
-2052096, 6500352, 24, 161, 39
-6713344, 6385664, 24, 161, 38
-7401472, 4558848, 29, 197, 3
4370432, 8400896, 30, 21, 39
7286784, 9670656, 39, 21, 39
-34705408, 6909952, 75, 195, 16
-32862208, 7446528, 75, 195, 16
