[
   {
      "Heading" : 190,
      "ID" : 1,
      "X" : [ -149, -177, -199, -169 ],
      "Y" : [ 491, 487, 555, 563 ]
   },
   {
      "Heading" : 10,
      "ID" : 1,
      "X" : [ -175, -152, -149, -173 ],
      "Y" : [ 473, 475, 410, 410 ]
   },
   {
      "Heading" : 100,
      "ID" : 2,
      "X" : [ -152, -156, -136, -133 ],
      "Y" : [ 476, 499, 502, 480 ]
   },
   {
      "Heading" : 190,
      "ID" : 1,
      "X" : [ -169, -168, -147, -146 ],
      "Y" : [ 361, 420, 420, 361 ]
   },
   {
      "Heading" : 90,
      "ID" : 2,
      "X" : [ -148, -148, -129, -130 ],
      "Y" : [ 344, 365, 365, 345 ]
   },
   {
      "Heading" : 270,
      "ID" : 2,
      "X" : [ -165, -165, -240, -240 ],
      "Y" : [ 365, 346, 345, 365 ]
   },
   {
      "Heading" : 180,
      "ID" : 2,
      "X" : [ -173, -174, -151, -151 ],
      "Y" : [ 174, 240, 241, 174 ]
   },
   {
      "Heading" : 21,
      "ID" : 2,
      "X" : [ -147, -96, -128, -180 ],
      "Y" : [ 160, 79, 66, 151 ]
   },
   {
      "Heading" : 280,
      "ID" : 1,
      "X" : [ -169, -216, -224, -174 ],
      "Y" : [ 152, 135, 172, 179 ]
   },
   {
      "Heading" : 140,
      "ID" : 2,
      "X" : [ -161, -151, -127, -140 ],
      "Y" : [ 281, 267, 284, 309 ]
   },
   {
      "Heading" : 290,
      "ID" : 2,
      "X" : [ -170, -178, -270, -266, -210, -201 ],
      "Y" : [ 254, 267, 228, 213, 210, 232 ]
   },
   {
      "Heading" : 1,
      "ID" : 1,
      "X" : [ -154, -152, -170, -170 ],
      "Y" : [ 262, 190, 190, 255 ]
   }
]
