{
    "02": {
        "cash": 20000,
        "lang": {
            "en": "Illegal use of a skin/nickname of the special services",
            "bg": "^CНезаконно използване на скин полиция / ник",
            "ua": "^CНезаконне використання скіна/ніка спецслужб",
            "ru": "^CНезаконное использование скина или ника спецслужб",
            "ro": "Folosirea ilegala a unui skin/nickname al serviciilor speciale",
			"sa": "^CПРОТNВОЗАКОННЫЙ ИСПОЛЬЗОВАНЫЙ ШКУРА/НNКОВ СПЕЦЫАЛЬНЫХ СЛУЖБ"
        }
    },
    "04": {
        "cash": 5000,
        "lang": {
            "en": "Speeding by more then 20 km/h",
            "bg": "^CПревишили сте скоростта с 20 км/ч",
            "ua": "^CПеревищення швидкості більш ніж на 20 км/год",
            "ru": "^CПревышение скорости более 20 км/ч",
            "ro": "Depasirea vitezei cu peste 20 km/h",
			"sa": "^CСКОРОСТНОЙ ПРОЕЗД БОЛЬШЕ НА 20 km/h"
        }
    },
    "05": {
        "cash": 10000,
        "lang": {
            "en": "Speeding by more then 40 km/h",
            "bg": "^CПревишили сте скоростта с 40 км/ч",
            "ua": "^CПеревищення швидкості більш ніж на 40 км/год",
            "ru": "^CПревышение скорости более 40 км/ч",
            "ro": "Depasirea vitezei cu peste 40 km/h",
			"sa": "^CСКОРОСТНОЙ ПРОЕЗД БОЛЬШЕ НА 40 km/h"
        }
    },
    "06": {
        "cash": 25000,
        "lang": {
            "en": "Speeding by more then 60 km/h",
            "bg": "^CПревишили сте скоростта с 60 км/ч",
            "ua": "^CПеревищення швидкості більш ніж на 60 км/год",
            "ru": "^CПревышение скорости более 60 км/ч",
            "ro": "Depasirea vitezei cu peste 60 km/h",
			"sa": "^CСКОРОСТНОЙ ПРОЕЗД БОЛЬШЕ НА 60 km/h"
        }
    },
    "07": {
        "cash": 50000,
        "lang": {
            "en": "Speeding by more then 80 km/h",
            "bg": "^CПревишили сте скоростта с 80 км/ч",
            "ua": "^CПеревищення швидкості більш ніж на 80 км/год",
            "ru": "^CПревышение скорости более 80 км/ч",
            "ro": "Depasirea vitezei cu peste 80 km/h",
			"sa": "^CСКОРОСТНОЙ ПРОЕЗД БОЛЬШЕ НА 80 km/h"
        }
    },
    "08": {
        "cash": 5000,
        "lang": {
            "en": "Violation of rules for stopping or parking",
            "bg": "^CНарушили сте мястото за паркиране",
            "ua": "^CПорушення правил зупинки або стоянки",
            "ru": "^CНарушение правил остановки или стоянки",
            "ro": "Incalcarea regulilor de oprire sau parcare",
			"sa": "^CСТОЯЛ НЕ В ПАРКОВАНОМ ПРNЗНАЧЕНNЕ"
			
        }
    },
    "09": {
        "cash": 10000,
        "lang": {
            "en": "Driving Wrong Way",
            "bg": "^CДвижилисте се в грешното плътно",
            "ua": "^CРух зустрічною смугою",
            "ru": "^CДвижение по встречной полосе",
            "ro": "Conducerea pe contrasens",
			"sa": "^CЕЗДА В ЧУЖОМ ПОЛЕ"
        }
    },
    "10": {
        "cash": 25000,
        "lang": {
            "en": "Failure to stop",
            "ru": "^CНевыполнение требования остановки",
            "ua": "^CНевиконання вимог зупинки",
            "bg": "^CНе сте спряли на служител от MВР",
            "ro": "Inabilitatea de a opri",
			"sa": "^CНЕ СДЕЛАЛ ВЫМОГАТЕЛЬ СТОЯНN9"
        }
    },
    "11": {
        "cash": 20000,
        "lang": {
            "en": "Causing an accident",
            "bg": "^CСъздание на ПТП",
            "ua": "^CСтворення ДТП",
            "ru": "^CСоздание ДТП",
            "ro": "Cauzarea unui accident",
			"sa": "^CОРГАНNЗАЦNЯ ПЕРЕСТРЕЛКN"
			
        }
    },
    "12": {
        "cash": 20000,
        "lang": {
            "en": "Leaving the place of the accident",
            "bg": "^CНапуснали сте мястото на ПТП",
            "ua": "^CЗалишення місця ДТП",
            "ru": "^CОставление места ДТП",
            "ro": "Parasirea locului accidentului",
		    "sa": "^CСКРЫЛСЯ С ПЕРЕСТРЕЛКN"
        }
    },
    "13": {
        "cash": 2000,
        "lang": {
            "en": "Speeding in pitlane",
            "bg": "^CПревишена скорост в пита",
            "ua": "^CПеревищення швидкості у пітлейні",
            "ru": "^CПревышение скорости на питлейне",
            "ro": "Depasirea vitezei in aria pit-urilor",
			"sa": "^CБЫСТРОХОДНЫЙ ПРОЕЗД В КОРОБКАХ"
        }
    },
    "14": {
        "cash": 25000,
        "lang": {
            "en": "Insulting a Police Officer",
            "bg": "^CНаскърбили сте полицай",
            "ua": "^CОбраза співробітника поліції",
            "ru": "^CОскорбление сотрудника ДПС",
            "ro": "Insultarea unui ofiter de politie",
			"sa": "^CОСКОРБЛЕНNЕ КОТОВ"
        }
    },
    "15": {
        "cash": 10000,
        "lang": {
            "en": "Driving on red lights / none green light",
            "bg": "^CПреминахте на забранен сигнал-светофар",
            "ua": "^CПроїзд на заборонний сигнал світлофора",
            "ru": "^CПроезд на запрещающий сигнал светофора",
            "ro": "Trecerea pe rosu",
			"sa": "^CЕХАНNЕ НА ЗАПРЕТНЫЙ СВЕТ"
        }
    },
    "16": {
        "cash": 1000000,
        "lang": {
            "en": "Using cheats",
            "bg": "^CИзползване на чийт",
            "ua": "^CВикористання читів",
            "ru": "^CИспользование читов",
            "ro": "Folosirea codurilor",
			"sa": "^CЧNТ КОТ АКТNВИРОВАН"
        }
    },
    "17": {
        "cash": 50000,
        "lang": {
            "en": "Interrupting chases",
            "bg": "^CПопречели сте на служител от КАТ при преследване",
            "ua": "^CСтворення перешкоди під час переслідування",
            "ru": "^CСоздание помехи при преследовании",
            "ro": "Intreruperea urmaririi",
			"sa": "^CСОЗДАНNЕ ПРЕГРАЖДЕНNЕ ВО NМЯ ПРЕСЛЕДОВАНNИ9"
        }
    },
    "18": {
        "cash": 50000,
        "lang": {
            "en": "Hitting a pedestrian",
            "bg": "^CБлъсна ли сте пешаходец",
            "ua": "^CНаїзд на пішохода",
            "ru": "^CНаезд на пешехода",
            "ro": "Lovirea unui pieton",
			"sa": "^CСБNЛ БАБУШКУ"
        }
    },
    "19": {
        "cash": 10000,
        "lang": {
            "en": "Failure to comply with road marking",
            "bg": "^CНе спазвате пътната маркировка",
            "ua": "^CНедотримання вимог розмітки проїзної частини",
            "ru": "^CНесоблюдение требований разметки проезжей части",
            "ro": "Inabilitatea de a respecta marcajele de pe strada",
			"sa": "^CНЕДОПУСК РАЗМЕТКN ДОРОГN"
        }
    },
    "20": {
        "cash": 20000,
        "lang": {
            "en": "Defacing state property",
            "bg": "^CБутнали сте радар на полицай",
            "ua": "^CПсування державного майна",
            "ru": "^CПорча государственного имущества",
            "ro": "Vandalizarea proprietatii statului",
			"sa": "^CПОРЧА ГОСУДАРСТВN9 NМУЩЕСТВА"
        }
    },
    "21": {
        "cash": 10000,
        "lang": {
            "en": "False call Police Officer",
            "bg": "^CФалшиво повикване на КАТ",
            "ua": "^CХибний виклик співробітника поліції",
            "ru": "^CЛожный вызов сотрудника ДПС",
            "ro": "Apel fals catre un ofiter al politiei",
			"sa": "^CЛОЖНА9 ПРNЗЫВКА КОТА"
        }
    }
}
