{
   "lesson" : {
      "box-parking" : {
         "checkpoints" : [
            {
               "Heading" : 301,
               "X" : 263,
               "Y" : -429
            }
         ],
         "finish" : {
            "Heading" : 329,
            "X" : 256,
            "Y" : -435
         },
         "position" : [
            {
               "X" : 251,
               "Y" : -415
            },
            {
               "X" : 269,
               "Y" : -426
            },
            {
               "X" : 261,
               "Y" : -441
            },
            {
               "X" : 242,
               "Y" : -430
            }
         ],
         "start" : {
            "Heading" : 240,
            "X" : 251,
            "Y" : -427
         }
      },
      "city" : {},
      "examination" : {},
      "hill" : {},
      "parallel-parking" : {
         "checkpoints" : [
            {
               "Heading" : 236,
               "X" : 208,
               "Y" : -405
            }
         ],
         "finish" : {
            "Heading" : 236,
            "X" : 199,
            "Y" : -403
         },
         "position" : [
            {
               "X" : 195,
               "Y" : -393
            },
            {
               "X" : 213,
               "Y" : -403
            },
            {
               "X" : 208,
               "Y" : -411
            },
            {
               "X" : 191,
               "Y" : -401
            }
         ],
         "start" : {
            "Heading" : 236,
            "X" : 196,
            "Y" : -398
         }
      },
      "shicane" : {
         "checkpoints" : [
            {
               "X" : 151,
               "Y" : -370
            },
            {
               "X" : 155,
               "Y" : -376
            },
            {
               "X" : 162,
               "Y" : -377
            },
            {
               "X" : 167,
               "Y" : -383
            }
         ],
         "finish" : {
            "Heading" : 240,
            "X" : 178,
            "Y" : -385
         },
         "position" : [
            {
               "X" : 146,
               "Y" : -363
            },
            {
               "X" : 185,
               "Y" : -386
            },
            {
               "X" : 179,
               "Y" : -394
            },
            {
               "X" : 140,
               "Y" : -372
            }
         ],
         "start" : {
            "Heading" : 236,
            "X" : 147,
            "Y" : -358
         }
      },
      "u-turn" : {
         "checkpoints" : [
            {
               "Heading" : 308,
               "X" : 236,
               "Y" : -418
            },
            {
               "Heading" : 3,
               "X" : 233,
               "Y" : -422
            }
         ],
         "finish" : {
            "Heading" : 60,
            "X" : 227,
            "Y" : -413
         },
         "position" : [
            {
               "X" : 222,
               "Y" : -406
            },
            {
               "X" : 244,
               "Y" : -418
            },
            {
               "X" : 238,
               "Y" : -428
            },
            {
               "X" : 215,
               "Y" : -415
            }
         ],
         "start" : {
            "Heading" : 238,
            "X" : 220,
            "Y" : -414
         }
      }
   },
   "lessons" : [
      "box-parking",
      "city",
      "examination",
      "hill",
      "parallel-parking",
      "shicane",
      "u-turn"
   ]
}
